{
  "project_info": {
    "project_number": "431565028347",
    "firebase_url": "https://near-ce9f2.firebaseio.com",
    "project_id": "near-ce9f2",
    "storage_bucket": "near-ce9f2.appspot.com"
  },
  "client": [
    {
      "client_info": {
        "mobilesdk_app_id": "1:431565028347:android:48d23c0e0cf48e58",
        "android_client_info": {
          "package_name": "com.luisignacio.com.near"
        }
      },
      "oauth_client": [
        {
          "client_id": "431565028347-dl4l6180237r0e56ph10eb8qu6pbae5j.apps.googleusercontent.com",
          "client_type": 1,
          "android_info": {
            "package_name": "com.luisignacio.com.near",
            "certificate_hash": "57f8aaee240a4e52fef0ed70ba9ad011d2a50bdf"
          }
        },
        {
          "client_id": "431565028347-31gvagk702bmer4c712o114rv3o1t48k.apps.googleusercontent.com",
          "client_type": 3
        },
        {
          "client_id": "431565028347-31gvagk702bmer4c712o114rv3o1t48k.apps.googleusercontent.com",
          "client_type": 3
        }
      ],
      "api_key": [
        {
          "current_key": "AIzaSyCTCCl633K1a2as-2xkFQ2jsMLeq_pEW3c"
        }
      ],
      "services": {
        "analytics_service": {
          "status": 1
        },
        "appinvite_service": {
          "status": 2,
          "other_platform_oauth_client": [
            {
              "client_id": "431565028347-31gvagk702bmer4c712o114rv3o1t48k.apps.googleusercontent.com",
              "client_type": 3
            }
          ]
        },
        "ads_service": {
          "status": 2
        }
      }
    },
    {
      "client_info": {
        "mobilesdk_app_id": "1:431565028347:android:79bd4e6b89a9a77a",
        "android_client_info": {
          "package_name": "com.luisignacio.com.nearadmin"
        }
      },
      "oauth_client": [
        {
          "client_id": "431565028347-dnmdp6f46j13tplbp9786cblgtbkct6b.apps.googleusercontent.com",
          "client_type": 1,
          "android_info": {
            "package_name": "com.luisignacio.com.nearadmin",
            "certificate_hash": "57f8aaee240a4e52fef0ed70ba9ad011d2a50bdf"
          }
        },
        {
          "client_id": "431565028347-31gvagk702bmer4c712o114rv3o1t48k.apps.googleusercontent.com",
          "client_type": 3
        },
        {
          "client_id": "431565028347-31gvagk702bmer4c712o114rv3o1t48k.apps.googleusercontent.com",
          "client_type": 3
        }
      ],
      "api_key": [
        {
          "current_key": "AIzaSyCTCCl633K1a2as-2xkFQ2jsMLeq_pEW3c"
        }
      ],
      "services": {
        "analytics_service": {
          "status": 1
        },
        "appinvite_service": {
          "status": 2,
          "other_platform_oauth_client": [
            {
              "client_id": "431565028347-31gvagk702bmer4c712o114rv3o1t48k.apps.googleusercontent.com",
              "client_type": 3
            }
          ]
        },
        "ads_service": {
          "status": 2
        }
      }
    }
  ],
  "configuration_version": "1"
}